,Mat,Inns,NO,Runs,HS,Ave,BF,SR,100,50,0,4s,6s,Opposition,Start Date,Match No
0,1,1,0,177,177,177.00,301,58.80,1,0,0,23,1,v West Indies,6 Nov 2013,Test # 2101
1,2,2,1,288,177,288.00,428,67.28,2,0,0,34,4,v West Indies,14 Nov 2013,Test # 2102
2,3,4,1,308,177,102.66,483,63.76,2,0,0,36,4,v South Africa,18 Dec 2013,Test # 2108
3,4,6,1,333,177,66.60,530,62.83,2,0,1,38,5,v South Africa,26 Dec 2013,Test # 2111
4,5,8,1,424,177,60.57,709,59.80,2,1,1,48,6,v New Zealand,6 Feb 2014,Test # 2118
5,6,10,2,455,177,56.87,809,56.24,2,1,2,52,6,v New Zealand,14 Feb 2014,Test # 2120
6,7,12,2,489,177,48.90,898,54.45,2,1,2,55,6,v England,27 Jul 2014,Test # 2132
7,8,14,2,538,177,44.83,1005,53.53,2,1,2,61,6,v Australia,9 Dec 2014,Test # 2148
8,9,16,2,570,177,40.71,1062,53.67,2,1,3,64,7,v Australia,17 Dec 2014,Test # 2149
9,10,18,2,662,177,41.37,1285,51.51,2,2,3,71,11,v Australia,6 Jan 2015,Test # 2156
10,11,19,2,668,177,39.29,1294,51.62,2,2,3,72,11,v Bangladesh,10 Jun 2015,Test # 2165
11,12,21,2,681,177,35.84,1334,51.04,2,2,3,74,11,v Sri Lanka,12 Aug 2015,Test # 2176
12,13,23,2,794,177,37.80,1521,52.20,2,3,3,81,14,v Sri Lanka,20 Aug 2015,Test # 2177
13,14,25,2,870,177,37.82,1658,52.47,2,4,3,88,16,v Sri Lanka,28 Aug 2015,Test # 2179
14,15,27,2,895,177,35.80,1725,51.88,2,4,3,89,17,v South Africa,25 Nov 2015,Test # 2189
15,16,29,2,896,177,33.18,1732,51.73,2,4,4,89,17,v South Africa,3 Dec 2015,Test # 2191
16,17,31,2,946,177,32.62,1814,52.14,2,4,4,92,20,v West Indies,9 Aug 2016,Test # 2215
17,18,31,2,946,177,32.62,1814,52.14,2,4,4,92,20,v West Indies,18 Aug 2016,Test # 2218
18,19,33,3,1049,177,34.96,1974,53.14,2,5,4,103,21,v New Zealand,22 Sep 2016,Test # 2221
19,20,35,3,1133,177,35.40,2118,53.49,2,6,4,112,23,v New Zealand,30 Sep 2016,Test # 2222
20,21,36,4,1184,177,37.00,2181,54.28,2,7,4,115,25,v New Zealand,8 Oct 2016,Test # 2223
21,22,37,5,1286,177,40.18,2341,54.93,3,7,4,123,26,v Sri Lanka,24 Nov 2017,Test # 2283
22,23,39,6,1401,177,42.45,2492,56.21,3,9,4,135,28,v Sri Lanka,2 Dec 2017,Test # 2286
23,24,41,6,1422,177,40.62,2581,55.09,3,9,4,136,28,v South Africa,5 Jan 2018,Test # 2292
24,25,43,6,1479,177,39.97,2682,55.14,3,9,4,144,29,v South Africa,13 Jan 2018,Test # 2293
25,26,45,6,1517,177,38.89,2749,55.18,3,9,4,146,32,v Australia,6 Dec 2018,Test # 2333
26,27,47,7,1585,177,39.62,2881,55.01,3,10,4,151,32,v Australia,26 Dec 2018,Test # 2337
27,28,49,7,1888,177,44.95,3274,57.66,5,10,4,184,45,v South Africa,2 Oct 2019,Test # 2363
28,29,50,7,1902,177,44.23,3309,57.47,5,10,4,185,45,v South Africa,10 Oct 2019,Test # 2364
29,30,51,7,2114,212,48.04,3564,59.31,6,10,4,213,51,v South Africa,19 Oct 2019,Test # 2365
30,31,52,7,2120,212,47.11,3578,59.25,6,10,4,214,51,v Bangladesh,14 Nov 2019,Test # 2366
31,32,53,7,2141,212,46.54,3613,59.25,6,10,4,216,52,v Bangladesh,22 Nov 2019,Test # 2369
32,33,55,7,2219,212,46.22,3788,58.57,6,11,4,224,54,v Australia,7 Jan 2021,Test # 2402
33,34,57,7,2270,212,45.40,3883,58.45,6,11,4,231,54,v Australia,15 Jan 2021,Test # 2404
34,35,59,7,2288,212,44.00,3912,58.48,6,11,4,233,55,v England,5 Feb 2021,Test # 2409
35,36,61,7,2475,212,45.83,4213,58.74,7,11,4,253,58,v England,13 Feb 2021,Test # 2411
36,37,63,8,2566,212,46.65,4334,59.20,7,12,4,267,59,v England,24 Feb 2021,Test # 2412
37,38,64,8,2615,212,46.69,4478,58.39,7,12,4,274,59,v England,4 Mar 2021,Test # 2414
