,Runs,Mins,BF,4s,6s,SR,Pos,Dismissal,Inns,Opposition,Ground,Start Date,Match No
0,177,370,301,23,1,58.80,6,lbw,2,v West Indies,Kolkata,6 Nov 2013,Test # 2101
1,111*,181,127,11,3,87.40,6,not out,2,v West Indies,Mumbai,14 Nov 2013,Test # 2102
2,14,46,42,1,0,33.33,5,caught,1,v South Africa,Johannesburg,18 Dec 2013,Test # 2108
3,6,19,13,1,0,46.15,5,bowled,3,v South Africa,Johannesburg,18 Dec 2013,Test # 2108
4,0,2,1,0,0,0.00,5,bowled,1,v South Africa,Durban,26 Dec 2013,Test # 2111
5,25,69,46,2,1,54.34,5,lbw,3,v South Africa,Durban,26 Dec 2013,Test # 2111
6,72,167,120,8,1,60.00,5,bowled,2,v New Zealand,Auckland,6 Feb 2014,Test # 2118
7,19,90,59,2,0,32.20,5,caught,4,v New Zealand,Auckland,6 Feb 2014,Test # 2118
8,0,11,3,0,0,0.00,6,bowled,2,v New Zealand,Wellington,14 Feb 2014,Test # 2120
9,31*,122,97,4,0,31.95,5,not out,4,v New Zealand,Wellington,14 Feb 2014,Test # 2120
10,28,81,61,3,0,45.90,6,caught,2,v England,Southampton,27 Jul 2014,Test # 2132
11,6,39,28,0,0,21.42,6,caught,4,v England,Southampton,27 Jul 2014,Test # 2132
12,43,142,89,5,0,48.31,6,caught,2,v Australia,Adelaide,9 Dec 2014,Test # 2148
13,6,37,18,1,0,33.33,6,caught,4,v Australia,Adelaide,9 Dec 2014,Test # 2148
14,32,93,55,3,1,58.18,6,caught,1,v Australia,Brisbane,17 Dec 2014,Test # 2149
15,0,2,2,0,0,0.00,6,caught,3,v Australia,Brisbane,17 Dec 2014,Test # 2149
16,53,179,133,5,2,39.84,3,bowled,2,v Australia,Sydney,6 Jan 2015,Test # 2156
17,39,102,90,2,2,43.33,3,caught,4,v Australia,Sydney,6 Jan 2015,Test # 2156
18,6,11,9,1,0,66.66,3,bowled,1,v Bangladesh,Fatullah,10 Jun 2015,Test # 2165
19,9,33,24,1,0,37.50,3,lbw,2,v Sri Lanka,Galle,12 Aug 2015,Test # 2176
20,4,16,16,1,0,25.00,4,bowled,4,v Sri Lanka,Galle,12 Aug 2015,Test # 2176
21,79,185,132,5,3,59.84,5,lbw,1,v Sri Lanka,Colombo (PSS),20 Aug 2015,Test # 2177
22,34,100,55,2,0,61.81,5,caught,3,v Sri Lanka,Colombo (PSS),20 Aug 2015,Test # 2177
23,26,95,65,3,1,40.00,5,caught,1,v Sri Lanka,Colombo (SSC),28 Aug 2015,Test # 2179
24,50,131,72,4,1,69.44,5,caught,3,v Sri Lanka,Colombo (SSC),28 Aug 2015,Test # 2179
25,2,41,28,0,0,7.14,6,caught,1,v South Africa,Nagpur,25 Nov 2015,Test # 2189
26,23,77,39,1,1,58.97,6,caught,3,v South Africa,Nagpur,25 Nov 2015,Test # 2189
27,1,15,6,0,0,16.66,6,caught,1,v South Africa,Delhi,3 Dec 2015,Test # 2191
28,0,7,1,0,0,0.00,3,bowled,3,v South Africa,Delhi,3 Dec 2015,Test # 2191
29,9,30,23,2,0,39.13,5,caught,1,v West Indies,Gros Islet,9 Aug 2016,Test # 2215
30,41,74,59,1,3,69.49,5,lbw,3,v West Indies,Gros Islet,9 Aug 2016,Test # 2215
31,TDNB,-,-,-,-,-,-,-,-,v West Indies,Port of Spain,18 Aug 2016,Test # 2218
32,35,96,67,3,1,52.23,6,caught,1,v New Zealand,Kanpur,22 Sep 2016,Test # 2221
33,68*,156,93,8,0,73.11,6,not out,3,v New Zealand,Kanpur,22 Sep 2016,Test # 2221
34,2,22,12,0,0,16.66,6,caught,1,v New Zealand,Kolkata,30 Sep 2016,Test # 2222
35,82,214,132,9,2,62.12,6,caught,3,v New Zealand,Kolkata,30 Sep 2016,Test # 2222
36,51*,90,63,3,2,80.95,6,not out,1,v New Zealand,Indore,8 Oct 2016,Test # 2223
37,DNB,-,-,-,-,-,-,-,3,v New Zealand,Indore,8 Oct 2016,Test # 2223
38,102*,191,160,8,1,63.75,6,not out,2,v Sri Lanka,Nagpur,24 Nov 2017,Test # 2283
39,65,129,102,7,2,63.72,6,caught,1,v Sri Lanka,Delhi,2 Dec 2017,Test # 2286
40,50*,77,49,5,0,102.04,6,not out,3,v Sri Lanka,Delhi,2 Dec 2017,Test # 2286
41,11,95,59,1,0,18.64,5,lbw,2,v South Africa,Cape Town,5 Jan 2018,Test # 2292
42,10,53,30,0,0,33.33,5,bowled,4,v South Africa,Cape Town,5 Jan 2018,Test # 2292
43,10,34,27,2,0,37.03,5,lbw,2,v South Africa,Centurion,13 Jan 2018,Test # 2293
44,47,102,74,6,1,63.51,6,caught,4,v South Africa,Centurion,13 Jan 2018,Test # 2293
45,37,71,61,2,3,60.65,6,caught,1,v Australia,Adelaide,6 Dec 2018,Test # 2333
46,1,15,6,0,0,16.66,6,caught,3,v Australia,Adelaide,6 Dec 2018,Test # 2333
47,63*,186,114,5,0,55.26,6,not out,1,v Australia,Melbourne,26 Dec 2018,Test # 2337
48,5,28,18,0,0,27.77,6,caught,3,v Australia,Melbourne,26 Dec 2018,Test # 2337
49,176,-,244,23,6,72.13,2,stumped,1,v South Africa,Visakhapatnam,2 Oct 2019,Test # 2363
50,127,-,149,10,7,85.23,2,stumped,3,v South Africa,Visakhapatnam,2 Oct 2019,Test # 2363
51,14,-,35,1,0,40.00,2,caught,1,v South Africa,Pune,10 Oct 2019,Test # 2364
52,212,-,255,28,6,83.13,2,caught,1,v South Africa,Ranchi,19 Oct 2019,Test # 2365
53,6,-,14,1,0,42.85,2,caught,2,v Bangladesh,Indore,14 Nov 2019,Test # 2366
54,21,-,35,2,1,60.00,2,lbw,2,v Bangladesh,Kolkata,22 Nov 2019,Test # 2369
55,26,110,77,3,1,33.76,1,caught,2,v Australia,Sydney,7 Jan 2021,Test # 2402
56,52,137,98,5,1,53.06,1,caught,4,v Australia,Sydney,7 Jan 2021,Test # 2402
57,44,90,74,6,0,59.45,1,caught,2,v Australia,Brisbane,15 Jan 2021,Test # 2404
58,7,34,21,1,0,33.33,1,caught,4,v Australia,Brisbane,15 Jan 2021,Test # 2404
59,6,15,9,1,0,66.66,1,caught,2,v England,Chennai,5 Feb 2021,Test # 2409
60,12,23,20,1,1,60.00,1,bowled,4,v England,Chennai,5 Feb 2021,Test # 2409
61,161,327,231,18,2,69.69,1,caught,1,v England,Chennai,13 Feb 2021,Test # 2411
62,26,91,70,2,1,37.14,1,stumped,3,v England,Chennai,13 Feb 2021,Test # 2411
63,66,208,96,11,0,68.75,1,lbw,2,v England,Ahmedabad,24 Feb 2021,Test # 2412
64,25*,26,25,3,1,100.00,1,not out,4,v England,Ahmedabad,24 Feb 2021,Test # 2412
65,49,235,144,7,0,34.02,2,lbw,2,v England,Ahmedabad,4 Mar 2021,Test # 2414
