\BOOKMARK [1][-]{section.1}{Introduction}{}% 1
\BOOKMARK [1][-]{section.2}{ODIs and T20Is}{}% 2
\BOOKMARK [1][-]{section.3}{Tests}{}% 3
\BOOKMARK [1][-]{section.4}{Career Summary}{}% 4
\BOOKMARK [1][-]{section.5}{References}{}% 5
